{
  "choices": [
    {
      "id": "c59e0e95-cf49-437a-a692-a8c4b1073cd2",
      "name": "add movie",
      "type": "Macro",
      "command": true,
      "macroId": "cac23b1f-043e-4c79-8725-c721bd1b3816"
    }
  ],
  "macros": [
    {
      "name": "moovie",
      "id": "cac23b1f-043e-4c79-8725-c721bd1b3816",
      "commands": [
        {
          "name": "movies",
          "type": "UserScript",
          "id": "306dafb8-3866-4287-8409-78812d2a4de8",
          "path": "Scripts/movies.js",
          "settings": {
            "OMDb API Key": "2c93aef9"
          }
        },
        {
          "name": "Untitled Template Choice",
          "type": "NestedChoice",
          "id": "bc2f4cd3-6db4-4583-94f1-f5e5e6a9eb24",
          "choice": {
            "id": "ddbc208f-9764-4ead-ba70-399c03d4632b",
            "name": "Untitled Template Choice",
            "type": "Template",
            "command": false,
            "templatePath": "TEMPLATES/Yeni Film Şablonu.md",
            "fileNameFormat": {
              "enabled": true,
              "format": "{{VALUE:fileName}}"
            },
            "folder": {
              "enabled": true,
              "folders": [
                "/movies"
              ],
              "chooseWhenCreatingNote": false,
              "createInSameFolderAsActiveFile": false,
              "chooseFromSubfolders": false
            },
            "appendLink": false,
            "openFileInNewTab": {
              "enabled": false,
              "direction": "vertical",
              "focus": true
            },
            "openFile": false,
            "openFileInMode": "default",
            "fileExistsMode": "Increment the file name",
            "setFileExistsBehavior": false
          }
        }
      ],
      "runOnStartup": false
    }
  ],
  "inputPrompt": "single-line",
  "devMode": false,
  "templateFolderPath": "",
  "announceUpdates": true,
  "version": "0.14.0",
  "disableOnlineFeatures": true,
  "ai": {
    "defaultModel": "Ask me",
    "defaultSystemPrompt": "As an AI assistant within Obsidian, your primary goal is to help users manage their ideas and knowledge more effectively. Format your responses using Markdown syntax. Please use the [[Obsidian]] link format. You can write aliases for the links by writing [[Obsidian|the alias after the pipe symbol]]. To use mathematical notation, use LaTeX syntax. LaTeX syntax for larger equations should be on separate lines, surrounded with double dollar signs ($$). You can also inline math expressions by wrapping it in $ symbols. For example, use $$w_{ij}^{\text{new}}:=w_{ij}^{\text{current}}+etacdotdelta_jcdot x_{ij}$$ on a separate line, but you can write \"($eta$ = learning rate, $delta_j$ = error term, $x_{ij}$ = input)\" inline.",
    "promptTemplatesFolderPath": "",
    "showAssistant": true,
    "providers": [
      {
        "name": "OpenAI",
        "endpoint": "https://api.openai.com/v1",
        "apiKey": "",
        "models": [
          {
            "name": "gpt-3.5-turbo",
            "maxTokens": 4096
          },
          {
            "name": "gpt-3.5-turbo-16k",
            "maxTokens": 16384
          },
          {
            "name": "gpt-3.5-turbo-1106",
            "maxTokens": 16385
          },
          {
            "name": "gpt-4",
            "maxTokens": 8192
          },
          {
            "name": "gpt-4-32k",
            "maxTokens": 32768
          },
          {
            "name": "gpt-4-1106-preview",
            "maxTokens": 128000
          },
          {
            "name": "text-davinci-003",
            "maxTokens": 4096
          }
        ]
      }
    ]
  },
  "migrations": {
    "migrateToMacroIDFromEmbeddedMacro": true,
    "useQuickAddTemplateFolder": true,
    "incrementFileNameSettingMoveToDefaultBehavior": true,
    "mutualExclusionInsertAfterAndWriteToBottomOfFile": true,
    "setVersionAfterUpdateModalRelease": true,
    "addDefaultAIProviders": false
  }
}